<?xml version="1.0" encoding="UTF-8"?>
<robot generator="Robot 6.1 (Python 3.11.4 on win32)" generated="20240811 17:01:18.422" rpa="false" schemaversion="4">
<suite id="s1" name="Get &amp; Post">
<suite id="s1-s1" name="Get" source="D:\Study\Automation\APIAutomation\TestSuit\TestCases\Get.robot">
<test id="s1-s1-t1" name="UserProfileRetrive" line="8">
<kw name="Create Session" library="RequestsLibrary">
<arg>mysession</arg>
<arg>${Host}</arg>
<doc>Create Session: create a HTTP session to a server</doc>
<msg timestamp="20240811 17:01:18.679" level="INFO">Creating Session using : alias=mysession, url=https://reqres.in, headers={},                     cookies={}, auth=None, timeout=None, proxies=None, verify=False,                     debug=0 </msg>
<status status="PASS" starttime="20240811 17:01:18.679" endtime="20240811 17:01:18.680"/>
</kw>
<kw name="Get Request" library="RequestsLibrary">
<var>${response}</var>
<arg>mysession</arg>
<arg>${path}</arg>
<doc>*DEPRECATED* Please use `GET On Session` instead.</doc>
<msg timestamp="20240811 17:01:18.680" level="WARN">Keyword 'RequestsLibrary.Get Request' is deprecated. Please use `GET On Session` instead.</msg>
<msg timestamp="20240811 17:01:18.847" level="INFO">GET Request : url=https://reqres.in/api/users?page=2 
 path_url=/api/users?page=2 
 headers={'User-Agent': 'python-requests/2.31.0', 'Accept-Encoding': 'gzip, deflate', 'Accept': '*/*', 'Connection': 'keep-alive'} 
 body=None 
 </msg>
<msg timestamp="20240811 17:01:18.847" level="INFO">GET Response : url=https://reqres.in/api/users?page=2 
 status=200, reason=OK 
 headers={'Date': 'Sun, 11 Aug 2024 11:31:18 GMT', 'Content-Type': 'application/json; charset=utf-8', 'Transfer-Encoding': 'chunked', 'Connection': 'keep-alive', 'Report-To': '{"group":"heroku-nel","max_age":3600,"endpoints":[{"url":"https://nel.heroku.com/reports?ts=1723364454&amp;sid=c4c9725f-1ab0-44d8-820f-430df2718e11&amp;s=8VL%2F6uTICgubXBqtbEjbVTt%2BpQPThbI8VSmVRGvQsGk%3D"}]}', 'Reporting-Endpoints': 'heroku-nel=https://nel.heroku.com/reports?ts=1723364454&amp;sid=c4c9725f-1ab0-44d8-820f-430df2718e11&amp;s=8VL%2F6uTICgubXBqtbEjbVTt%2BpQPThbI8VSmVRGvQsGk%3D', 'Nel': '{"report_to":"heroku-nel","max_age":3600,"success_fraction":0.005,"failure_fraction":0.05,"response_headers":["Via"]}', 'X-Powered-By': 'Express', 'Access-Control-Allow-Origin': '*', 'Etag': 'W/"406-ut0vzoCuidvyMf8arZpMpJ6ZRDw"', 'Via': '1.1 vegur', 'Cache-Control': 'max-age=14400', 'CF-Cache-Status': 'HIT', 'Age': '4215', 'Vary': 'Accept-Encoding', 'Server': 'cloudflare', 'CF-RAY': '8b17e60a78517eb8-MAA', 'Content-Encoding': 'gzip'} 
 body={"page":2,"per_page":6,"total":12,"total_pages":2,"data":[{"id":7,"email":"michael.lawson@reqres.in","first_name":"Michael","last_name":"Lawson","avatar":"https://reqres.in/img/faces/7-image.jpg"},{"id":8,"email":"lindsay.ferguson@reqres.in","first_name":"Lindsay","last_name":"Ferguson","avatar":"https://reqres.in/img/faces/8-image.jpg"},{"id":9,"email":"tobias.funke@reqres.in","first_name":"Tobias","last_name":"Funke","avatar":"https://reqres.in/img/faces/9-image.jpg"},{"id":10,"email":"byron.fields@reqres.in","first_name":"Byron","last_name":"Fields","avatar":"https://reqres.in/img/faces/10-image.jpg"},{"id":11,"email":"george.edwards@reqres.in","first_name":"George","last_name":"Edwards","avatar":"https://reqres.in/img/faces/11-image.jpg"},{"id":12,"email":"rachel.howell@reqres.in","first_name":"Rachel","last_name":"Howell","avatar":"https://reqres.in/img/faces/12-image.jpg"}],"support":{"url":"https://reqres.in/#support-heading","text":"To keep ReqRes free, contributions towards server costs are appreciated!"}} 
 </msg>
<msg timestamp="20240811 17:01:18.848" level="INFO">C:\Program Files\Python311\Lib\site-packages\urllib3\connectionpool.py:1095: InsecureRequestWarning: Unverified HTTPS request is being made to host 'reqres.in'. Adding certificate verification is strongly advised. See: https://urllib3.readthedocs.io/en/latest/advanced-usage.html#tls-warnings
  warnings.warn(</msg>
<msg timestamp="20240811 17:01:18.848" level="INFO">${response} = &lt;Response [200]&gt;</msg>
<status status="PASS" starttime="20240811 17:01:18.680" endtime="20240811 17:01:18.848"/>
</kw>
<kw name="Log" library="BuiltIn">
<arg>${response.status_code}</arg>
<doc>Logs the given message with the given level.</doc>
<msg timestamp="20240811 17:01:18.849" level="INFO">200</msg>
<status status="PASS" starttime="20240811 17:01:18.848" endtime="20240811 17:01:18.850"/>
</kw>
<kw name="Log" library="BuiltIn">
<arg>${response.content}</arg>
<doc>Logs the given message with the given level.</doc>
<msg timestamp="20240811 17:01:18.851" level="INFO">{"page":2,"per_page":6,"total":12,"total_pages":2,"data":[{"id":7,"email":"michael.lawson@reqres.in","first_name":"Michael","last_name":"Lawson","avatar":"https://reqres.in/img/faces/7-image.jpg"},{"id":8,"email":"lindsay.ferguson@reqres.in","first_name":"Lindsay","last_name":"Ferguson","avatar":"https://reqres.in/img/faces/8-image.jpg"},{"id":9,"email":"tobias.funke@reqres.in","first_name":"Tobias","last_name":"Funke","avatar":"https://reqres.in/img/faces/9-image.jpg"},{"id":10,"email":"byron.fields@reqres.in","first_name":"Byron","last_name":"Fields","avatar":"https://reqres.in/img/faces/10-image.jpg"},{"id":11,"email":"george.edwards@reqres.in","first_name":"George","last_name":"Edwards","avatar":"https://reqres.in/img/faces/11-image.jpg"},{"id":12,"email":"rachel.howell@reqres.in","first_name":"Rachel","last_name":"Howell","avatar":"https://reqres.in/img/faces/12-image.jpg"}],"support":{"url":"https://reqres.in/#support-heading","text":"To keep ReqRes free, contributions towards server costs are appreciated!"}}</msg>
<status status="PASS" starttime="20240811 17:01:18.850" endtime="20240811 17:01:18.851"/>
</kw>
<kw name="StatusCode_Validation" library="keyword">
<arg>${response.status_code}</arg>
<arg>200</arg>
<kw name="Log" library="BuiltIn">
<arg>${statuscode}</arg>
<doc>Logs the given message with the given level.</doc>
<msg timestamp="20240811 17:01:18.852" level="INFO">200</msg>
<status status="PASS" starttime="20240811 17:01:18.852" endtime="20240811 17:01:18.852"/>
</kw>
<kw name="Log" library="BuiltIn">
<arg>${code}</arg>
<doc>Logs the given message with the given level.</doc>
<msg timestamp="20240811 17:01:18.852" level="INFO">200</msg>
<status status="PASS" starttime="20240811 17:01:18.852" endtime="20240811 17:01:18.852"/>
</kw>
<kw name="Run Keyword And Continue On Failure" library="BuiltIn">
<arg>should be equal as integers</arg>
<arg>${statuscode}</arg>
<arg>${code}</arg>
<doc>Runs the keyword and continues execution even if a failure occurs.</doc>
<kw name="Should Be Equal As Integers" library="BuiltIn">
<arg>${statuscode}</arg>
<arg>${code}</arg>
<doc>Fails if objects are unequal after converting them to integers.</doc>
<msg timestamp="20240811 17:01:18.853" level="INFO">Argument types are:
&lt;class 'int'&gt;
&lt;class 'str'&gt;</msg>
<status status="PASS" starttime="20240811 17:01:18.853" endtime="20240811 17:01:18.853"/>
</kw>
<status status="PASS" starttime="20240811 17:01:18.852" endtime="20240811 17:01:18.853"/>
</kw>
<status status="PASS" starttime="20240811 17:01:18.851" endtime="20240811 17:01:18.853"/>
</kw>
<kw name="ResponseContent_Validation" library="keyword">
<arg>${response.content}</arg>
<kw name="Log" library="BuiltIn">
<arg>${payload}</arg>
<doc>Logs the given message with the given level.</doc>
<msg timestamp="20240811 17:01:18.854" level="INFO">{"page":2,"per_page":6,"total":12,"total_pages":2,"data":[{"id":7,"email":"michael.lawson@reqres.in","first_name":"Michael","last_name":"Lawson","avatar":"https://reqres.in/img/faces/7-image.jpg"},{"id":8,"email":"lindsay.ferguson@reqres.in","first_name":"Lindsay","last_name":"Ferguson","avatar":"https://reqres.in/img/faces/8-image.jpg"},{"id":9,"email":"tobias.funke@reqres.in","first_name":"Tobias","last_name":"Funke","avatar":"https://reqres.in/img/faces/9-image.jpg"},{"id":10,"email":"byron.fields@reqres.in","first_name":"Byron","last_name":"Fields","avatar":"https://reqres.in/img/faces/10-image.jpg"},{"id":11,"email":"george.edwards@reqres.in","first_name":"George","last_name":"Edwards","avatar":"https://reqres.in/img/faces/11-image.jpg"},{"id":12,"email":"rachel.howell@reqres.in","first_name":"Rachel","last_name":"Howell","avatar":"https://reqres.in/img/faces/12-image.jpg"}],"support":{"url":"https://reqres.in/#support-heading","text":"To keep ReqRes free, contributions towards server costs are appreciated!"}}</msg>
<status status="PASS" starttime="20240811 17:01:18.854" endtime="20240811 17:01:18.854"/>
</kw>
<kw name="Evaluate" library="BuiltIn">
<var>${json}</var>
<arg>json.loads('''${payload}''')</arg>
<doc>Evaluates the given expression in Python and returns the result.</doc>
<msg timestamp="20240811 17:01:18.855" level="INFO">${json} = {'page': 2, 'per_page': 6, 'total': 12, 'total_pages': 2, 'data': [{'id': 7, 'email': 'michael.lawson@reqres.in', 'first_name': 'Michael', 'last_name': 'Lawson', 'avatar': 'https://reqres.in/img/faces...</msg>
<status status="PASS" starttime="20240811 17:01:18.854" endtime="20240811 17:01:18.855"/>
</kw>
<kw name="Log" library="BuiltIn">
<arg>${json}</arg>
<doc>Logs the given message with the given level.</doc>
<msg timestamp="20240811 17:01:18.855" level="INFO">{'page': 2, 'per_page': 6, 'total': 12, 'total_pages': 2, 'data': [{'id': 7, 'email': 'michael.lawson@reqres.in', 'first_name': 'Michael', 'last_name': 'Lawson', 'avatar': 'https://reqres.in/img/faces/7-image.jpg'}, {'id': 8, 'email': 'lindsay.ferguson@reqres.in', 'first_name': 'Lindsay', 'last_name': 'Ferguson', 'avatar': 'https://reqres.in/img/faces/8-image.jpg'}, {'id': 9, 'email': 'tobias.funke@reqres.in', 'first_name': 'Tobias', 'last_name': 'Funke', 'avatar': 'https://reqres.in/img/faces/9-image.jpg'}, {'id': 10, 'email': 'byron.fields@reqres.in', 'first_name': 'Byron', 'last_name': 'Fields', 'avatar': 'https://reqres.in/img/faces/10-image.jpg'}, {'id': 11, 'email': 'george.edwards@reqres.in', 'first_name': 'George', 'last_name': 'Edwards', 'avatar': 'https://reqres.in/img/faces/11-image.jpg'}, {'id': 12, 'email': 'rachel.howell@reqres.in', 'first_name': 'Rachel', 'last_name': 'Howell', 'avatar': 'https://reqres.in/img/faces/12-image.jpg'}], 'support': {'url': 'https://reqres.in/#support-heading', 'text': 'To keep ReqRes free, contributions towards server costs are appreciated!'}}</msg>
<status status="PASS" starttime="20240811 17:01:18.855" endtime="20240811 17:01:18.855"/>
</kw>
<kw name="Run Keyword And Continue On Failure" library="BuiltIn">
<arg>should be equal as integers</arg>
<arg>${json['data'][0]['id']}</arg>
<arg>7</arg>
<doc>Runs the keyword and continues execution even if a failure occurs.</doc>
<kw name="Should Be Equal As Integers" library="BuiltIn">
<arg>${json['data'][0]['id']}</arg>
<arg>7</arg>
<doc>Fails if objects are unequal after converting them to integers.</doc>
<msg timestamp="20240811 17:01:18.856" level="INFO">Argument types are:
&lt;class 'int'&gt;
&lt;class 'str'&gt;</msg>
<status status="PASS" starttime="20240811 17:01:18.855" endtime="20240811 17:01:18.856"/>
</kw>
<status status="PASS" starttime="20240811 17:01:18.855" endtime="20240811 17:01:18.856"/>
</kw>
<status status="PASS" starttime="20240811 17:01:18.853" endtime="20240811 17:01:18.856"/>
</kw>
<status status="PASS" starttime="20240811 17:01:18.678" endtime="20240811 17:01:18.856"/>
</test>
<status status="PASS" starttime="20240811 17:01:18.462" endtime="20240811 17:01:18.856"/>
</suite>
<suite id="s1-s2" name="Post" source="D:\Study\Automation\APIAutomation\TestSuit\TestCases\Post.robot">
<test id="s1-s2-t1" name="StoreUserProfile" line="7">
<kw name="Create Session" library="RequestsLibrary">
<arg>HostSession</arg>
<arg>${Host}</arg>
<doc>Create Session: create a HTTP session to a server</doc>
<msg timestamp="20240811 17:01:18.865" level="INFO">Creating Session using : alias=HostSession, url=https://reqres.in, headers={},                     cookies={}, auth=None, timeout=None, proxies=None, verify=False,                     debug=0 </msg>
<status status="PASS" starttime="20240811 17:01:18.865" endtime="20240811 17:01:18.865"/>
</kw>
<kw name="Create Dictionary" library="BuiltIn">
<var>${body}</var>
<arg>name=morpheus</arg>
<arg>job=leader</arg>
<doc>Creates and returns a dictionary based on the given ``items``.</doc>
<msg timestamp="20240811 17:01:18.866" level="INFO">${body} = {'name': 'morpheus', 'job': 'leader'}</msg>
<status status="PASS" starttime="20240811 17:01:18.865" endtime="20240811 17:01:18.866"/>
</kw>
<kw name="Create Dictionary" library="BuiltIn">
<var>${header}</var>
<arg>Content-Type=application/json</arg>
<doc>Creates and returns a dictionary based on the given ``items``.</doc>
<msg timestamp="20240811 17:01:18.866" level="INFO">${header} = {'Content-Type': 'application/json'}</msg>
<status status="PASS" starttime="20240811 17:01:18.866" endtime="20240811 17:01:18.866"/>
</kw>
<kw name="Post Request" library="RequestsLibrary">
<var>${response}</var>
<arg>HostSession</arg>
<arg>${store_path}</arg>
<arg>data=${body}</arg>
<arg>headers=${header}</arg>
<doc>*DEPRECATED* Please use `POST On Session` instead.</doc>
<msg timestamp="20240811 17:01:18.866" level="WARN">Keyword 'RequestsLibrary.Post Request' is deprecated. Please use `POST On Session` instead.</msg>
<msg timestamp="20240811 17:01:19.267" level="INFO">POST Request : url=https://reqres.in/api/users 
 path_url=/api/users 
 headers={'User-Agent': 'python-requests/2.31.0', 'Accept-Encoding': 'gzip, deflate', 'Accept': '*/*', 'Connection': 'keep-alive', 'Content-Type': 'application/json', 'Content-Length': '37'} 
 body={"name": "morpheus", "job": "leader"} 
 </msg>
<msg timestamp="20240811 17:01:19.268" level="INFO">POST Response : url=https://reqres.in/api/users 
 status=201, reason=Created 
 headers={'Date': 'Sun, 11 Aug 2024 11:31:19 GMT', 'Content-Type': 'application/json; charset=utf-8', 'Content-Length': '84', 'Connection': 'keep-alive', 'Report-To': '{"group":"heroku-nel","max_age":3600,"endpoints":[{"url":"https://nel.heroku.com/reports?ts=1723375879&amp;sid=c4c9725f-1ab0-44d8-820f-430df2718e11&amp;s=8gT%2B%2B3U69sfJDRW3yNOE2D77YhGYHig047VkJ1IR3n0%3D"}]}', 'Reporting-Endpoints': 'heroku-nel=https://nel.heroku.com/reports?ts=1723375879&amp;sid=c4c9725f-1ab0-44d8-820f-430df2718e11&amp;s=8gT%2B%2B3U69sfJDRW3yNOE2D77YhGYHig047VkJ1IR3n0%3D', 'Nel': '{"report_to":"heroku-nel","max_age":3600,"success_fraction":0.005,"failure_fraction":0.05,"response_headers":["Via"]}', 'X-Powered-By': 'Express', 'Access-Control-Allow-Origin': '*', 'Etag': 'W/"54-iN1uOjyfvcW39x1XEU22Y17jfnc"', 'Via': '1.1 vegur', 'CF-Cache-Status': 'DYNAMIC', 'Server': 'cloudflare', 'CF-RAY': '8b17e60b1eca7eaa-MAA'} 
 body={"name":"morpheus","job":"leader","id":"637","createdAt":"2024-08-11T11:31:19.149Z"} 
 </msg>
<msg timestamp="20240811 17:01:19.268" level="INFO">C:\Program Files\Python311\Lib\site-packages\urllib3\connectionpool.py:1095: InsecureRequestWarning: Unverified HTTPS request is being made to host 'reqres.in'. Adding certificate verification is strongly advised. See: https://urllib3.readthedocs.io/en/latest/advanced-usage.html#tls-warnings
  warnings.warn(</msg>
<msg timestamp="20240811 17:01:19.268" level="INFO">${response} = &lt;Response [201]&gt;</msg>
<status status="PASS" starttime="20240811 17:01:18.866" endtime="20240811 17:01:19.268"/>
</kw>
<kw name="Log" library="BuiltIn">
<arg>${response.status_code}</arg>
<doc>Logs the given message with the given level.</doc>
<msg timestamp="20240811 17:01:19.268" level="INFO">201</msg>
<status status="PASS" starttime="20240811 17:01:19.268" endtime="20240811 17:01:19.269"/>
</kw>
<kw name="Log" library="BuiltIn">
<arg>${response.content}</arg>
<doc>Logs the given message with the given level.</doc>
<msg timestamp="20240811 17:01:19.269" level="INFO">{"name":"morpheus","job":"leader","id":"637","createdAt":"2024-08-11T11:31:19.149Z"}</msg>
<status status="PASS" starttime="20240811 17:01:19.269" endtime="20240811 17:01:19.269"/>
</kw>
<kw name="StatusCode_Validation" library="keyword">
<arg>${response.status_code}</arg>
<arg>201</arg>
<kw name="Log" library="BuiltIn">
<arg>${statuscode}</arg>
<doc>Logs the given message with the given level.</doc>
<msg timestamp="20240811 17:01:19.270" level="INFO">201</msg>
<status status="PASS" starttime="20240811 17:01:19.270" endtime="20240811 17:01:19.270"/>
</kw>
<kw name="Log" library="BuiltIn">
<arg>${code}</arg>
<doc>Logs the given message with the given level.</doc>
<msg timestamp="20240811 17:01:19.270" level="INFO">201</msg>
<status status="PASS" starttime="20240811 17:01:19.270" endtime="20240811 17:01:19.270"/>
</kw>
<kw name="Run Keyword And Continue On Failure" library="BuiltIn">
<arg>should be equal as integers</arg>
<arg>${statuscode}</arg>
<arg>${code}</arg>
<doc>Runs the keyword and continues execution even if a failure occurs.</doc>
<kw name="Should Be Equal As Integers" library="BuiltIn">
<arg>${statuscode}</arg>
<arg>${code}</arg>
<doc>Fails if objects are unequal after converting them to integers.</doc>
<msg timestamp="20240811 17:01:19.271" level="INFO">Argument types are:
&lt;class 'int'&gt;
&lt;class 'str'&gt;</msg>
<status status="PASS" starttime="20240811 17:01:19.271" endtime="20240811 17:01:19.271"/>
</kw>
<status status="PASS" starttime="20240811 17:01:19.271" endtime="20240811 17:01:19.271"/>
</kw>
<status status="PASS" starttime="20240811 17:01:19.269" endtime="20240811 17:01:19.271"/>
</kw>
<status status="PASS" starttime="20240811 17:01:18.864" endtime="20240811 17:01:19.271"/>
</test>
<status status="PASS" starttime="20240811 17:01:18.857" endtime="20240811 17:01:19.272"/>
</suite>
<status status="PASS" starttime="20240811 17:01:18.425" endtime="20240811 17:01:19.272"/>
</suite>
<statistics>
<total>
<stat pass="2" fail="0" skip="0">All Tests</stat>
</total>
<tag>
</tag>
<suite>
<stat pass="2" fail="0" skip="0" id="s1" name="Get &amp; Post">Get &amp; Post</stat>
<stat pass="1" fail="0" skip="0" id="s1-s1" name="Get">Get &amp; Post.Get</stat>
<stat pass="1" fail="0" skip="0" id="s1-s2" name="Post">Get &amp; Post.Post</stat>
</suite>
</statistics>
<errors>
<msg timestamp="20240811 17:01:18.680" level="WARN">Keyword 'RequestsLibrary.Get Request' is deprecated. Please use `GET On Session` instead.</msg>
<msg timestamp="20240811 17:01:18.866" level="WARN">Keyword 'RequestsLibrary.Post Request' is deprecated. Please use `POST On Session` instead.</msg>
</errors>
</robot>
